[
    {
        "id": "ace",
        "label": "edges.ace.label",
        "desc": "edges.ace.desc",
        "require": "N, A d8"
    },
    {
        "id": "acrobat",
        "label": "edges.acrobat.label",
        "desc": "edges.acrobat.desc",
        "require": "N, A d8, St d6"
    },
    {
        "id": "alertness",
        "label": "edges.alertness.label",
        "desc": "edges.alertness.desc",
        "require": "N"
    },
    {
        "id": "ambidextrous",
        "label": "edges.ambidextrous.label",
        "desc": "edges.ambidextrous.desc",
        "require": "N, A d8"
    },
    {
        "id": "arcane-background",
        "label": "edges.arcane-background.label",
        "desc": "edges.arcane-background.desc",
        "require": "N,"
    },
    {
        "id": "arcane-resistance",
        "label": "edges.arcane-resistance.label",
        "desc": "edges.arcane-resistance.desc",
        "require": "N, Sp d8"
    },
    {
        "id": "improved-arcane-res",
        "label": "edges.improved-arcane-res.label",
        "desc": "edges.improved-arcane-res.desc",
        "require": "N,"
    },
    {
        "id": "attractive",
        "label": "edges.attractive.label",
        "desc": "edges.attractive.desc",
        "require": "N, V d6"
    },
    {
        "id": "very-attractive",
        "label": "edges.very-attractive.label",
        "desc": "edges.very-attractive.desc",
        "require": "N,"
    },
    {
        "id": "beast-bond",
        "label": "edges.beast-bond.label",
        "desc": "edges.beast-bond.desc",
        "require": "N"
    },
    {
        "id": "beast-master",
        "label": "edges.beast-master.label",
        "desc": "edges.beast-master.desc",
        "require": "N,"
    },
    {
        "id": "berserk",
        "label": "edges.berserk.label",
        "desc": "edges.berserk.desc",
        "require": "N"
    },
    {
        "id": "block",
        "label": "edges.block.label",
        "desc": "edges.block.desc",
        "require": "S,"
    },
    {
        "id": "improved-block",
        "label": "edges.improved-block.label",
        "desc": "edges.improved-block.desc",
        "require": "V,"
    },
    {
        "id": "brawny",
        "label": "edges.brawny.label",
        "desc": "edges.brawny.desc",
        "require": "N, St d6, V d6"
    },
    {
        "id": "champion",
        "label": "edges.champion.label",
        "desc": "edges.champion.desc",
        "require": "N,"
    },
    {
        "id": "charismatic",
        "label": "edges.charismatic.label",
        "desc": "edges.charismatic.desc",
        "require": "N, Sp d8"
    },
    {
        "id": "combat-reflexes",
        "label": "edges.combat-reflexes.label",
        "desc": "edges.combat-reflexes.desc",
        "require": "S"
    },
    {
        "id": "command",
        "label": "edges.command.label",
        "desc": "edges.command.desc",
        "require": "N, Sm d6"
    },
    {
        "id": "common-bond",
        "label": "edges.common-bond.label",
        "desc": "edges.common-bond.desc",
        "require": "WC, N, Sp d8"
    },
    {
        "id": "connections",
        "label": "edges.connections.label",
        "desc": "edges.connections.desc",
        "require": "N"
    },
    {
        "id": "danger-sense",
        "label": "edges.danger-sense.label",
        "desc": "edges.danger-sense.desc",
        "require": "N"
    },
    {
        "id": "dead-shot",
        "label": "edges.dead-shot.label",
        "desc": "edges.dead-shot.desc",
        "require": "WC, S, Shoot/Throw d10"
    },
    {
        "id": "dodge",
        "label": "edges.dodge.label",
        "desc": "edges.dodge.desc",
        "require": "S, A d8"
    },
    {
        "id": "improved-dodge",
        "label": "edges.improved-dodge.label",
        "desc": "edges.improved-dodge.desc",
        "require": "V, Dodge"
    },
    {
        "id": "fast-healer",
        "label": "edges.fast-healer.label",
        "desc": "edges.fast-healer.desc",
        "require": "N, V d8"
    },
    {
        "id": "fervor",
        "label": "edges.fervor.label",
        "desc": "edges.fervor.desc",
        "require": "V, Sp d8, Command"
    },
    {
        "id": "first-strike",
        "label": "edges.first-strike.label",
        "desc": "edges.first-strike.desc",
        "require": "N, A d8"
    },
    {
        "id": "improved-first-strike",
        "label": "edges.improved-first-strike.label",
        "desc": "edges.improved-first-strike.desc",
        "require": "H,"
    },
    {
        "id": "fleet-footed",
        "label": "edges.fleet-footed.label",
        "desc": "edges.fleet-footed.desc",
        "require": "N, A d6"
    },
    {
        "id": "florentine",
        "label": "edges.florentine.label",
        "desc": "edges.florentine.desc",
        "require": "N, A d8, Fighting d8"
    },
    {
        "id": "followers",
        "label": "edges.followers.label",
        "desc": "edges.followers.desc",
        "require": "L, WC"
    },
    {
        "id": "frenzy",
        "label": "edges.frenzy.label",
        "desc": "edges.frenzy.desc",
        "require": "S, Fighting d10"
    },
    {
        "id": "improved-frenzy",
        "label": "edges.improved-frenzy.label",
        "desc": "edges.improved-frenzy.desc",
        "require": "V, Frenzy"
    },
    {
        "id": "gadgeteer",
        "label": "edges.gadgeteer.label",
        "desc": "edges.gadgeteer.desc",
        "require": "N,"
    },
    {
        "id": "giant-killer",
        "label": "edges.giant-killer.label",
        "desc": "edges.giant-killer.desc",
        "require": "V"
    },
    {
        "id": "hard-to-kill",
        "label": "edges.hard-to-kill.label",
        "desc": "edges.hard-to-kill.desc",
        "require": "N, WC, Sp d8"
    },
    {
        "id": "harder-to-kill",
        "label": "edges.harder-to-kill.label",
        "desc": "edges.harder-to-kill.desc",
        "require": "V,"
    },
    {
        "id": "healer",
        "label": "edges.healer.label",
        "desc": "edges.healer.desc",
        "require": "N, Sp d8"
    },
    {
        "id": "hold-the-line!",
        "label": "edges.hold-the-line!.label",
        "desc": "edges.hold-the-line!.desc",
        "require": "S, Sm d8,"
    },
    {
        "id": "holy/unholy-warrior",
        "label": "edges.holy/unholy-warrior.label",
        "desc": "edges.holy/unholy-warrior.desc",
        "require": "N,"
    },
    {
        "id": "inspire",
        "label": "edges.inspire.label",
        "desc": "edges.inspire.desc",
        "require": "S, Command"
    },
    {
        "id": "investigator",
        "label": "edges.investigator.label",
        "desc": "edges.investigator.desc",
        "require": "N, Sm d8, Inv. d8, Streetwise d8"
    },
    {
        "id": "jack-of-all-trades",
        "label": "edges.jack-of-all-trades.label",
        "desc": "edges.jack-of-all-trades.desc",
        "require": "N, Sm d10"
    },
    {
        "id": "level-headed",
        "label": "edges.level-headed.label",
        "desc": "edges.level-headed.desc",
        "require": "S, Sm d8"
    },
    {
        "id": "improved-level-headed",
        "label": "edges.improved-level-headed.label",
        "desc": "edges.improved-level-headed.desc",
        "require": "S,"
    },
    {
        "id": "luck",
        "label": "edges.luck.label",
        "desc": "edges.luck.desc",
        "require": "N"
    },
    {
        "id": "great-luck",
        "label": "edges.great-luck.label",
        "desc": "edges.great-luck.desc",
        "require": "N, Luck"
    },
    {
        "id": "marksman",
        "label": "edges.marksman.label",
        "desc": "edges.marksman.desc",
        "require": "S"
    },
    {
        "id": "mcgyver",
        "label": "edges.mcgyver.label",
        "desc": "edges.mcgyver.desc",
        "require": "N, Sm d6, Repair d6, Notice d8"
    },
    {
        "id": "mentalist",
        "label": "edges.mentalist.label",
        "desc": "edges.mentalist.desc",
        "require": "N, AB (Psionics), Sm d8, Psionics d6"
    },
    {
        "id": "mighty-blow",
        "label": "edges.mighty-blow.label",
        "desc": "edges.mighty-blow.desc",
        "require": "WC, S, Fighting d10"
    },
    {
        "id": "mr-fix-it",
        "label": "edges.mr-fix-it.label",
        "desc": "edges.mr-fix-it.desc",
        "require": "N, See text"
    },
    {
        "id": "natural-leader",
        "label": "edges.natural-leader.label",
        "desc": "edges.natural-leader.desc",
        "require": "N, Sp d8,"
    },
    {
        "id": "nerves-of-steel",
        "label": "edges.nerves-of-steel.label",
        "desc": "edges.nerves-of-steel.desc",
        "require": "N, WC, V d8"
    },
    {
        "id": "improved-nerves-of-steel",
        "label": "edges.improved-nerves-of-steel.label",
        "desc": "edges.improved-nerves-of-steel.desc",
        "require": "N, Nerves of Steel"
    },
    {
        "id": "new-power",
        "label": "edges.new-power.label",
        "desc": "edges.new-power.desc",
        "require": "N, AB"
    },
    {
        "id": "noble",
        "label": "edges.noble.label",
        "desc": "edges.noble.desc",
        "require": "N Rich"
    },
    {
        "id": "no-mercy",
        "label": "edges.no-mercy.label",
        "desc": "edges.no-mercy.desc",
        "require": "S"
    },
    {
        "id": "power-points",
        "label": "edges.power-points.label",
        "desc": "edges.power-points.desc",
        "require": "N, AB"
    },
    {
        "id": "power-surge",
        "label": "edges.power-surge.label",
        "desc": "edges.power-surge.desc",
        "require": "WC, S, arcane skill d10"
    },
    {
        "id": "professional",
        "label": "edges.professional.label",
        "desc": "edges.professional.desc",
        "require": "L, d12 in Trait"
    },
    {
        "id": "expert",
        "label": "edges.expert.label",
        "desc": "edges.expert.desc",
        "require": "L, Prof. in Trait"
    },
    {
        "id": "master",
        "label": "edges.master.label",
        "desc": "edges.master.desc",
        "require": "L, WC,"
    },
    {
        "id": "quick",
        "label": "edges.quick.label",
        "desc": "edges.quick.desc",
        "require": "N"
    },
    {
        "id": "quick-draw",
        "label": "edges.quick-draw.label",
        "desc": "edges.quick-draw.desc",
        "require": "N, A d8"
    },
    {
        "id": "rapid-recharge",
        "label": "edges.rapid-recharge.label",
        "desc": "edges.rapid-recharge.desc",
        "require": "S, Sp d6,"
    },
    {
        "id": "improved-rapid-recharge",
        "label": "edges.improved-rapid-recharge.label",
        "desc": "edges.improved-rapid-recharge.desc",
        "require": "V,"
    },
    {
        "id": "rich",
        "label": "edges.rich.label",
        "desc": "edges.rich.desc",
        "require": "N"
    },
    {
        "id": "filthy-rich",
        "label": "edges.filthy-rich.label",
        "desc": "edges.filthy-rich.desc",
        "require": "N,"
    },
    {
        "id": "rock-and-roll!",
        "label": "edges.rock-and-roll!.label",
        "desc": "edges.rock-and-roll!.desc",
        "require": "S, Shooting d8"
    },
    {
        "id": "scholar",
        "label": "edges.scholar.label",
        "desc": "edges.scholar.desc",
        "require": "N, d8 in affected skills"
    },
    {
        "id": "sidekick",
        "label": "edges.sidekick.label",
        "desc": "edges.sidekick.desc",
        "require": "L, WC"
    },
    {
        "id": "soul-drain",
        "label": "edges.soul-drain.label",
        "desc": "edges.soul-drain.desc",
        "require": "S,"
    },
    {
        "id": "steady-hands",
        "label": "edges.steady-hands.label",
        "desc": "edges.steady-hands.desc",
        "require": "N, A d8"
    },
    {
        "id": "sweep",
        "label": "edges.sweep.label",
        "desc": "edges.sweep.desc",
        "require": "N, St d8, Fighting d8"
    },
    {
        "id": "improved-sweep",
        "label": "edges.improved-sweep.label",
        "desc": "edges.improved-sweep.desc",
        "require": "V,"
    },
    {
        "id": "strong-willed",
        "label": "edges.strong-willed.label",
        "desc": "edges.strong-willed.desc",
        "require": "N, Intimidation d6,"
    },
    {
        "id": "thief",
        "label": "edges.thief.label",
        "desc": "edges.thief.desc",
        "require": "N, A d8, Climb d6, Lockpick d6, Stealth d8"
    },
    {
        "id": "tough-as-nails",
        "label": "edges.tough-as-nails.label",
        "desc": "edges.tough-as-nails.desc",
        "require": "L"
    },
    {
        "id": "improved-tough-as-nails",
        "label": "edges.improved-tough-as-nails.label",
        "desc": "edges.improved-tough-as-nails.desc",
        "require": "L, Tough as Nails"
    },
    {
        "id": "trademark-weapon",
        "label": "edges.trademark-weapon.label",
        "desc": "edges.trademark-weapon.desc",
        "require": "N, Fighting or Shooting d10"
    },
    {
        "id": "improved-trademark-weapon",
        "label": "edges.improved-trademark-weapon.label",
        "desc": "edges.improved-trademark-weapon.desc",
        "require": "V, Trademark Weapon"
    },
    {
        "id": "two-fisted",
        "label": "edges.two-fisted.label",
        "desc": "edges.two-fisted.desc",
        "require": "N, A d8"
    },
    {
        "id": "weapon-master",
        "label": "edges.weapon-master.label",
        "desc": "edges.weapon-master.desc",
        "require": "L, Fighting d12"
    },
    {
        "id": "master-of-arms",
        "label": "edges.master-of-arms.label",
        "desc": "edges.master-of-arms.desc",
        "require": "L, Weapon Master"
    },
    {
        "id": "wizard",
        "label": "edges.wizard.label",
        "desc": "edges.wizard.desc",
        "require": "N,"
    },
    {
        "id": "woodsman",
        "label": "edges.woodsman.label",
        "desc": "edges.woodsman.desc",
        "require": "N, Sp d6, Survival d8, Tracking d8"
    }
]
